module haybat.org/go_microservices

go 1.20

require (
	github.com/go-openapi/errors v0.20.3
	github.com/go-openapi/runtime v0.26.0
	github.com/go-openapi/strfmt v0.21.7
	github.com/go-openapi/swag v0.22.3
	github.com/go-openapi/validate v0.22.1
	github.com/go-playground/validator/v10 v10.13.0
	github.com/gorilla/mux v1.8.0
)

require (
	github.com/Masterminds/goutils v1.1.1 // indirect
	github.com/Masterminds/semver/v3 v3.2.0 // indirect
	github.com/Masterminds/sprig/v3 v3.2.3 // indirect
	github.com/asaskevich/govalidator v0.0.0-20230301143203-a9d515a09cc2 // indirect
	github.com/felixge/httpsnoop v1.0.3 // indirect
	github.com/fsnotify/fsnotify v1.6.0 // indirect
	github.com/go-logr/logr v1.2.3 // indirect
	github.com/go-logr/stdr v1.2.2 // indirect
	github.com/go-openapi/analysis v0.21.4 // indirect
	github.com/go-openapi/inflect v0.19.0 // indirect
	github.com/go-openapi/jsonpointer v0.19.6 // indirect
	github.com/go-openapi/jsonreference v0.20.2 // indirect
	github.com/go-openapi/loads v0.21.2 // indirect
	github.com/go-openapi/spec v0.20.9 // indirect
	github.com/go-playground/locales v0.14.1 // indirect
	github.com/go-playground/universal-translator v0.18.1 // indirect
	github.com/go-swagger/go-swagger v0.30.4 // indirect
	github.com/google/uuid v1.3.0 // indirect
	github.com/gorilla/handlers v1.5.1 // indirect
	github.com/hashicorp/hcl v1.0.0 // indirect
	github.com/huandu/xstrings v1.3.3 // indirect
	github.com/imdario/mergo v0.3.12 // indirect
	github.com/jessevdk/go-flags v1.5.0 // indirect
	github.com/josharian/intern v1.0.0 // indirect
	github.com/kr/pretty v0.3.1 // indirect
	github.com/kr/text v0.2.0 // indirect
	github.com/leodido/go-urn v1.2.3 // indirect
	github.com/magiconair/properties v1.8.6 // indirect
	github.com/mailru/easyjson v0.7.7 // indirect
	github.com/mitchellh/copystructure v1.2.0 // indirect
	github.com/mitchellh/mapstructure v1.5.0 // indirect
	github.com/mitchellh/reflectwalk v1.0.2 // indirect
	github.com/oklog/ulid v1.3.1 // indirect
	github.com/opentracing/opentracing-go v1.2.0 // indirect
	github.com/pelletier/go-toml v1.9.5 // indirect
	github.com/pelletier/go-toml/v2 v2.0.5 // indirect
	github.com/pkg/errors v0.9.1 // indirect
	github.com/rogpeppe/go-internal v1.10.0 // indirect
	github.com/shopspring/decimal v1.2.0 // indirect
	github.com/spf13/afero v1.9.2 // indirect
	github.com/spf13/cast v1.5.0 // indirect
	github.com/spf13/jwalterweatherman v1.1.0 // indirect
	github.com/spf13/pflag v1.0.5 // indirect
	github.com/spf13/viper v1.14.0 // indirect
	github.com/subosito/gotenv v1.4.1 // indirect
	github.com/toqueteos/webbrowser v1.2.0 // indirect
	go.mongodb.org/mongo-driver v1.11.6 // indirect
	go.opentelemetry.io/otel v1.14.0 // indirect
	go.opentelemetry.io/otel/trace v1.14.0 // indirect
	golang.org/x/crypto v0.9.0 // indirect
	golang.org/x/mod v0.8.0 // indirect
	golang.org/x/sys v0.8.0 // indirect
	golang.org/x/text v0.9.0 // indirect
	golang.org/x/tools v0.6.0 // indirect
	gopkg.in/ini.v1 v1.67.0 // indirect
	gopkg.in/yaml.v2 v2.4.0 // indirect
	gopkg.in/yaml.v3 v3.0.1 // indirect
)
